{
    "/assets/js/pages/datatables.init.js": "/assets/js/pages/datatables.init.js",
    "/assets/css/bootstrap.css": "/assets/css/bootstrap.css",
    "/assets/css/icons.css": "/assets/css/icons.css",
    "/assets/css/app.css": "/assets/css/app.css",
    "/assets/js/pages/email-summernote.init.js": "/assets/js/pages/email-summernote.init.js",
    "/assets/js/pages/form-advanced.init.js": "/assets/js/pages/form-advanced.init.js",
    "/assets/js/pages/form-editor.init.js": "/assets/js/pages/form-editor.init.js",
    "/assets/js/pages/form-mask.init.js": "/assets/js/pages/form-mask.init.js",
    "/assets/js/pages/form-repeater.int.js": "/assets/js/pages/form-repeater.int.js",
    "/assets/js/pages/form-validation.init.js": "/assets/js/pages/form-validation.init.js",
    "/assets/js/pages/form-wizard.init.js": "/assets/js/pages/form-wizard.init.js",
    "/assets/js/pages/form-xeditable.init.js": "/assets/js/pages/form-xeditable.init.js",
    "/assets/js/pages/questions.js": "/assets/js/pages/questions.js",
    "/assets/js/pages/subscriptions.js": "/assets/js/pages/subscriptions.js",
    "/assets/js/pages/sweet-alerts.init.js": "/assets/js/pages/sweet-alerts.init.js",
    "/assets/js/pages/v_script.js": "/assets/js/pages/v_script.js",
    "/assets/libs/jquery/jquery.min.js": "/assets/libs/jquery/jquery.min.js",
    "/assets/libs/bootstrap/bootstrap.min.js": "/assets/libs/bootstrap/bootstrap.min.js",
    "/assets/libs/metismenu/metismenu.min.js": "/assets/libs/metismenu/metismenu.min.js",
    "/assets/libs/simplebar/simplebar.min.js": "/assets/libs/simplebar/simplebar.min.js",
    "/assets/libs/node-waves/node-waves.min.js": "/assets/libs/node-waves/node-waves.min.js",
    "/assets/libs/select2/select2.min.js": "/assets/libs/select2/select2.min.js",
    "/assets/libs/select2/select2.min.css": "/assets/libs/select2/select2.min.css",
    "/assets/libs/datatables/datatables.min.js": "/assets/libs/datatables/datatables.min.js",
    "/assets/libs/datatables/datatables.min.css": "/assets/libs/datatables/datatables.min.css",
    "/assets/libs/pdfmake/pdfmake.min.js": "/assets/libs/pdfmake/pdfmake.min.js",
    "/assets/libs/jszip/jszip.min.js": "/assets/libs/jszip/jszip.min.js",
    "/assets/libs/bootstrap-datepicker/bootstrap-datepicker.min.js": "/assets/libs/bootstrap-datepicker/bootstrap-datepicker.min.js",
    "/assets/libs/bootstrap-datepicker/bootstrap-datepicker.min.css": "/assets/libs/bootstrap-datepicker/bootstrap-datepicker.min.css",
    "/assets/libs/bootstrap-filestyle/bootstrap-filestyle.min.js": "/assets/libs/bootstrap-filestyle/bootstrap-filestyle.min.js",
    "/assets/libs/bootstrap-editable/bootstrap-editable.min.js": "/assets/libs/bootstrap-editable/bootstrap-editable.min.js",
    "/assets/libs/bootstrap-editable/bootstrap-editable.min.css": "/assets/libs/bootstrap-editable/bootstrap-editable.min.css",
    "/assets/libs/sweetalert2/sweetalert2.min.js": "/assets/libs/sweetalert2/sweetalert2.min.js",
    "/assets/libs/sweetalert2/sweetalert2.min.css": "/assets/libs/sweetalert2/sweetalert2.min.css",
    "/assets/libs/bootstrap-maxlength/bootstrap-maxlength.min.js": "/assets/libs/bootstrap-maxlength/bootstrap-maxlength.min.js",
    "/assets/libs/moment/moment.min.js": "/assets/libs/moment/moment.min.js",
    "/assets/libs/magnific-popup/magnific-popup.min.js": "/assets/libs/magnific-popup/magnific-popup.min.js",
    "/assets/libs/magnific-popup/magnific-popup.min.css": "/assets/libs/magnific-popup/magnific-popup.min.css",
    "/assets/libs/bootstrap-touchspin/bootstrap-touchspin.min.js": "/assets/libs/bootstrap-touchspin/bootstrap-touchspin.min.js",
    "/assets/libs/bootstrap-touchspin/bootstrap-touchspin.min.css": "/assets/libs/bootstrap-touchspin/bootstrap-touchspin.min.css",
    "/assets/libs/parsleyjs/parsleyjs.min.js": "/assets/libs/parsleyjs/parsleyjs.min.js",
    "/assets/libs/bootstrap-colorpicker/bootstrap-colorpicker.min.js": "/assets/libs/bootstrap-colorpicker/bootstrap-colorpicker.min.js",
    "/assets/libs/bootstrap-colorpicker/bootstrap-colorpicker.min.css": "/assets/libs/bootstrap-colorpicker/bootstrap-colorpicker.min.css",
    "/assets/libs/summernote/summernote.min.js": "/assets/libs/summernote/summernote.min.js",
    "/assets/libs/summernote/summernote.min.css": "/assets/libs/summernote/summernote.min.css",
    "/assets/libs/dropzone/dropzone.min.js": "/assets/libs/dropzone/dropzone.min.js",
    "/assets/libs/dropzone/dropzone.min.css": "/assets/libs/dropzone/dropzone.min.css",
    "/assets/libs/jquery-repeater/jquery-repeater.min.js": "/assets/libs/jquery-repeater/jquery-repeater.min.js",
    "/assets/libs/jquery-steps/jquery-steps.min.js": "/assets/libs/jquery-steps/jquery-steps.min.js",
    "/assets/libs/inputmask/inputmask.min.js": "/assets/libs/inputmask/inputmask.min.js",
    "/assets/css/bootstrap.min.css": "/assets/css/bootstrap.min.css",
    "/assets/css/icons.min.css": "/assets/css/icons.min.css",
    "/assets/css/app.min.css": "/assets/css/app.min.css",
    "/assets/js/app.min.js": "/assets/js/app.min.js"
}
